<svg xmlns="http://www.w3.org/2000/svg" width="32" height="12" viewBox="0 0 32 12">
  <g id="Group_365" data-name="Group 365" transform="translate(1 1)">
    <line id="Line_19" data-name="Line 19" x2="30" fill="none" stroke="#fff" stroke-linecap="round" stroke-width="2"/>
    <line id="Line_21" data-name="Line 21" x2="26" transform="translate(0 10)" fill="none" stroke="#fff" stroke-linecap="round" stroke-width="2"/>
    <line id="Line_20" data-name="Line 20" x2="21" transform="translate(0 5)" fill="none" stroke="#fff" stroke-linecap="round" stroke-width="2"/>
  </g>
</svg>
